Lab 4/simulation/qsim/LogicalStep_Lab4.msim.vcd
$comment
	File created using the following command:
		vcd file LogicalStep_Lab4.msim.vcd -direction
$end
$date
	Tue Jul 16 22:16:06 2019
$end
$version
	ModelSim Version 10.4b
$end
$timescale
	1ps
$end

$scope module LogicalStep_Lab4_top_vlg_vec_tst $end
$var reg 1 ! clkin_50 $end
$var reg 4 " pb [3:0] $end
$var reg 1 # rst_n $end
$var reg 8 $ sw [7:0] $end
$var wire 1 % leds [7] $end
$var wire 1 & leds [6] $end
$var wire 1 ' leds [5] $end
$var wire 1 ( leds [4] $end
$var wire 1 ) leds [3] $end
$var wire 1 * leds [2] $end
$var wire 1 + leds [1] $end
$var wire 1 , leds [0] $end
$var wire 1 - seg7_char1 $end
$var wire 1 . seg7_char2 $end
$var wire 1 / seg7_data [6] $end
$var wire 1 0 seg7_data [5] $end
$var wire 1 1 seg7_data [4] $end
$var wire 1 2 seg7_data [3] $end
$var wire 1 3 seg7_data [2] $end
$var wire 1 4 seg7_data [1] $end
$var wire 1 5 seg7_data [0] $end

$scope module i1 $end
$var wire 1 6 gnd $end
$var wire 1 7 vcc $end
$var wire 1 8 unknown $end
$var tri1 1 9 devclrn $end
$var tri1 1 : devpor $end
$var tri1 1 ; devoe $end
$var wire 1 < pb[2]~input_o $end
$var wire 1 = pb[3]~input_o $end
$var wire 1 > sw[0]~input_o $end
$var wire 1 ? sw[1]~input_o $end
$var wire 1 @ sw[2]~input_o $end
$var wire 1 A sw[3]~input_o $end
$var wire 1 B sw[4]~input_o $end
$var wire 1 C sw[5]~input_o $end
$var wire 1 D sw[6]~input_o $end
$var wire 1 E sw[7]~input_o $end
$var wire 1 F leds[0]~output_o $end
$var wire 1 G leds[1]~output_o $end
$var wire 1 H leds[2]~output_o $end
$var wire 1 I leds[3]~output_o $end
$var wire 1 J leds[4]~output_o $end
$var wire 1 K leds[5]~output_o $end
$var wire 1 L leds[6]~output_o $end
$var wire 1 M leds[7]~output_o $end
$var wire 1 N seg7_data[0]~output_o $end
$var wire 1 O seg7_data[1]~output_o $end
$var wire 1 P seg7_data[2]~output_o $end
$var wire 1 Q seg7_data[3]~output_o $end
$var wire 1 R seg7_data[4]~output_o $end
$var wire 1 S seg7_data[5]~output_o $end
$var wire 1 T seg7_data[6]~output_o $end
$var wire 1 U seg7_char1~output_o $end
$var wire 1 V seg7_char2~output_o $end
$var wire 1 W clkin_50~input_o $end
$var wire 1 X INST1|ud_bin_counter[0]~8_combout $end
$var wire 1 Y rst_n~input_o $end
$var wire 1 Z pb[1]~input_o $end
$var wire 1 [ pb[0]~input_o $end
$var wire 1 \ INST1|process_0~0_combout $end
$var wire 1 ] INST1|ud_bin_counter[0]~9 $end
$var wire 1 ^ INST1|ud_bin_counter[1]~10_combout $end
$var wire 1 _ INST1|ud_bin_counter[1]~11 $end
$var wire 1 ` INST1|ud_bin_counter[2]~12_combout $end
$var wire 1 a INST1|ud_bin_counter[2]~13 $end
$var wire 1 b INST1|ud_bin_counter[3]~14_combout $end
$var wire 1 c INST1|ud_bin_counter[3]~15 $end
$var wire 1 d INST1|ud_bin_counter[4]~16_combout $end
$var wire 1 e INST1|ud_bin_counter[4]~17 $end
$var wire 1 f INST1|ud_bin_counter[5]~18_combout $end
$var wire 1 g INST1|ud_bin_counter[5]~19 $end
$var wire 1 h INST1|ud_bin_counter[6]~20_combout $end
$var wire 1 i INST1|ud_bin_counter[6]~21 $end
$var wire 1 j INST1|ud_bin_counter[7]~22_combout $end
$var wire 1 k INST1|ud_bin_counter [7] $end
$var wire 1 l INST1|ud_bin_counter [6] $end
$var wire 1 m INST1|ud_bin_counter [5] $end
$var wire 1 n INST1|ud_bin_counter [4] $end
$var wire 1 o INST1|ud_bin_counter [3] $end
$var wire 1 p INST1|ud_bin_counter [2] $end
$var wire 1 q INST1|ud_bin_counter [1] $end
$var wire 1 r INST1|ud_bin_counter [0] $end
$upscope $end
$upscope $end
$enddefinitions $end
#0
$dumpvars
0!
bx11 "
0#
bx $
0,
0+
0*
0)
0(
0'
0&
0%
0-
0.
05
04
03
02
01
00
0/
06
17
x8
19
1:
1;
x<
x=
x>
x?
x@
xA
xB
xC
xD
xE
0F
0G
0H
0I
0J
0K
0L
0M
0N
0O
0P
0Q
0R
0S
0T
0U
0V
0W
1X
0Y
1Z
1[
1\
0]
0^
1_
0`
0a
0b
1c
0d
0e
0f
1g
0h
0i
0j
0r
0q
0p
0o
0n
0m
0l
0k
$end
#10000
1!
1W
#20000
0!
0W
#30000
1!
1W
#40000
0!
0W
#50000
1!
1W
#60000
0!
0W
#70000
1!
1W
#80000
0!
0W
#90000
1!
1W
#100000
0!
0W
#110000
1!
1W
#120000
1#
0!
1Y
0W
#130000
1!
1W
1r
1F
1]
1,
0X
1^
#140000
0!
0W
#150000
1!
1W
1q
0r
0F
1G
0_
0]
1+
0,
0^
1X
1_
1`
1^
0`
#160000
0!
0W
#170000
1!
1W
1r
1F
1]
1,
0X
0_
0^
1`
#180000
0!
0W
#190000
1!
1W
1p
0q
0r
0F
0G
1H
1a
1_
0]
1*
0+
0,
0`
1^
1X
0a
1b
1`
0^
0b
#200000
0!
0W
#210000
1!
1W
1r
1F
1]
1,
0X
1^
#220000
0!
0W
#230000
1!
1W
1q
0r
0F
1G
0_
0]
1+
0,
0^
1X
1a
1_
0`
1^
0a
1b
1`
0b
#240000
0!
0W
#250000
1!
1W
1r
1F
1]
1,
0X
0_
0^
1a
0`
1b
#260000
0!
0W
#270000
1!
1W
1o
0p
0q
0r
0F
0G
0H
1I
0c
0a
1_
0]
1)
0*
0+
0,
0b
1`
1^
1X
1c
1d
1b
0`
0^
0d
#280000
0!
0W
#290000
1!
1W
1r
1F
1]
1,
0X
1^
#300000
0!
0W
#310000
1!
1W
1q
0r
0F
1G
0_
0]
1+
0,
0^
1X
1_
1`
1^
0`
#320000
0!
0W
#330000
1!
1W
1r
1F
1]
1,
0X
0_
0^
1`
#340000
0!
0W
#350000
1!
1W
1p
0q
0r
0F
0G
1H
1a
1_
0]
1*
0+
0,
0`
1^
1X
0c
0a
0b
1`
0^
1c
1d
1b
0d
#360000
0!
0W
#370000
1!
1W
1r
1F
1]
1,
0X
1^
#380000
0!
0W
#390000
1!
1W
1q
0r
0F
1G
0_
0]
1+
0,
0^
1X
1a
1_
0`
1^
0c
0a
0b
1`
1c
1d
1b
0d
#400000
0!
0W
#410000
1!
1W
1r
1F
1]
1,
0X
0_
0^
1a
0`
0c
0b
1d
#420000
0!
0W
#430000
1!
1W
1n
0o
0p
0q
0r
0F
0G
0H
0I
1J
1e
1c
0a
1_
0]
1(
0)
0*
0+
0,
0d
1b
1`
1^
1X
0e
1f
1d
0b
0`
0^
0f
#440000
0!
0W
#450000
1!
1W
1r
1F
1]
1,
0X
1^
#460000
0!
0W
#470000
1!
1W
1q
0r
0F
1G
0_
0]
1+
0,
0^
1X
1_
1`
1^
0`
#480000
0!
0W
#490000
1!
1W
1r
1F
1]
1,
0X
0_
0^
1`
#500000
0!
0W
#510000
1!
1W
1p
0q
0r
0F
0G
1H
1a
1_
0]
1*
0+
0,
0`
1^
1X
0a
1b
1`
0^
0b
#520000
0!
0W
#530000
1!
1W
1r
1F
1]
1,
0X
1^
#540000
0!
0W
#550000
1!
1W
1q
0r
0F
1G
0_
0]
1+
0,
0^
1X
1a
1_
0`
1^
0a
1b
1`
0b
#560000
0!
0W
#570000
1!
1W
1r
1F
1]
1,
0X
0_
0^
1a
0`
1b
#580000
0!
0W
#590000
1!
1W
1o
0p
0q
0r
0F
0G
0H
1I
0c
0a
1_
0]
1)
0*
0+
0,
0b
1`
1^
1X
1e
1c
0d
1b
0`
0^
0e
1f
1d
0f
#600000
0!
0W
#610000
1!
1W
1r
1F
1]
1,
0X
1^
#620000
0!
0W
#630000
1!
1W
1q
0r
0F
1G
0_
0]
1+
0,
0^
1X
1_
1`
1^
0`
#640000
0!
0W
#650000
1!
1W
1r
1F
1]
1,
0X
0_
0^
1`
#660000
0!
0W
#670000
1!
1W
1p
0q
0r
0F
0G
1H
1a
1_
0]
1*
0+
0,
0`
1^
1X
0c
0a
0b
1`
0^
1e
1c
0d
1b
0e
1f
1d
0f
#680000
0!
0W
#690000
1!
1W
1r
1F
1]
1,
0X
1^
#700000
0!
0W
#710000
1!
1W
1q
0r
0F
1G
0_
0]
1+
0,
0^
1X
1a
1_
0`
1^
0c
0a
0b
1`
1e
1c
0d
1b
0e
1f
1d
0f
#720000
0!
0W
#730000
1!
1W
1r
1F
1]
1,
0X
0_
0^
1a
0`
0c
0b
1e
0d
1f
#740000
0!
0W
#750000
1!
1W
1m
0n
0o
0p
0q
0r
0F
0G
0H
0I
0J
1K
0g
0e
1c
0a
1_
0]
1'
0(
0)
0*
0+
0,
0f
1d
1b
1`
1^
1X
1g
1h
1f
0d
0b
0`
0^
0h
#760000
0!
0W
#770000
1!
1W
1r
1F
1]
1,
0X
1^
#780000
0!
0W
#790000
1!
1W
1q
0r
0F
1G
0_
0]
1+
0,
0^
1X
1_
1`
1^
0`
#800000
0!
0W
#810000
1!
1W
1r
1F
1]
1,
0X
0_
0^
1`
#820000
0!
0W
#830000
1!
1W
1p
0q
0r
0F
0G
1H
1a
1_
0]
1*
0+
0,
0`
1^
1X
0a
1b
1`
0^
0b
#840000
0!
0W
#850000
1!
1W
1r
1F
1]
1,
0X
1^
#860000
0!
0W
#870000
1!
1W
1q
0r
0F
1G
0_
0]
1+
0,
0^
1X
1a
1_
0`
1^
0a
1b
1`
0b
#880000
0!
0W
#890000
1!
1W
1r
1F
1]
1,
0X
0_
0^
1a
0`
1b
#900000
0!
0W
#910000
1!
1W
1o
0p
0q
0r
0F
0G
0H
1I
0c
0a
1_
0]
1)
0*
0+
0,
0b
1`
1^
1X
1c
1d
1b
0`
0^
0d
#920000
0!
0W
#930000
1!
1W
1r
1F
1]
1,
0X
1^
#940000
0!
0W
#950000
1!
1W
1q
0r
0F
1G
0_
0]
1+
0,
0^
1X
1_
1`
1^
0`
#960000
0!
0W
#970000
1!
1W
1r
1F
1]
1,
0X
0_
0^
1`
#980000
0!
0W
#990000
1!
1W
1p
0q
0r
0F
0G
1H
1a
1_
0]
1*
0+
0,
0`
1^
1X
0c
0a
0b
1`
0^
1c
1d
1b
0d
#1000000
0!
0W
#1010000
1!
1W
1r
1F
1]
1,
0X
1^
#1020000
0!
0W
#1030000
1!
1W
1q
0r
0F
1G
0_
0]
1+
0,
0^
1X
1a
1_
0`
1^
0c
0a
0b
1`
1c
1d
1b
0d
#1040000
0!
0W
#1050000
1!
1W
1r
1F
1]
1,
0X
0_
0^
1a
0`
0c
0b
1d
#1060000
0!
0W
#1070000
1!
1W
1n
0o
0p
0q
0r
0F
0G
0H
0I
1J
1e
1c
0a
1_
0]
1(
0)
0*
0+
0,
0d
1b
1`
1^
1X
0g
0e
0f
1d
0b
0`
0^
1g
1h
1f
0h
#1080000
0!
0W
#1090000
1!
1W
1r
1F
1]
1,
0X
1^
#1100000
0!
0W
#1110000
1!
1W
1q
0r
0F
1G
0_
0]
1+
0,
0^
1X
1_
1`
1^
0`
#1120000
0!
0W
#1130000
1!
1W
1r
1F
1]
1,
0X
0_
0^
1`
#1140000
0!
0W
#1150000
1!
1W
1p
0q
0r
0F
0G
1H
1a
1_
0]
1*
0+
0,
0`
1^
1X
0a
1b
1`
0^
0b
#1160000
0!
0W
#1170000
1!
1W
1r
1F
1]
1,
0X
1^
#1180000
0!
0W
#1190000
1!
1W
1q
0r
0F
1G
0_
0]
1+
0,
0^
1X
1a
1_
0`
1^
0a
1b
1`
0b
#1200000
0!
0W
#1210000
1!
1W
1r
1F
1]
1,
0X
0_
0^
1a
0`
1b
#1220000
0!
0W
#1230000
1!
1W
1o
0p
0q
0r
0F
0G
0H
1I
0c
0a
1_
0]
1)
0*
0+
0,
0b
1`
1^
1X
1e
1c
0d
1b
0`
0^
0g
0e
0f
1d
1g
1h
1f
0h
#1240000
0!
0W
#1250000
1!
1W
1r
1F
1]
1,
0X
1^
#1260000
0!
0W
#1270000
1!
1W
1q
0r
0F
1G
0_
0]
1+
0,
0^
1X
1_
1`
1^
0`
#1280000
0!
0W
#1290000
1!
1W
1r
1F
1]
1,
0X
0_
0^
1`
#1300000
0!
0W
#1310000
1!
1W
1p
0q
0r
0F
0G
1H
1a
1_
0]
1*
0+
0,
0`
1^
1X
0c
0a
0b
1`
0^
1e
1c
0d
1b
0g
0e
0f
1d
1g
1h
1f
0h
#1320000
0!
0W
#1330000
1!
1W
1r
1F
1]
1,
0X
1^
#1340000
0!
0W
#1350000
1!
1W
1q
0r
0F
1G
0_
0]
1+
0,
0^
1X
1a
1_
0`
1^
0c
0a
0b
1`
1e
1c
0d
1b
0g
0e
0f
1d
1g
1h
1f
0h
#1360000
0!
0W
#1370000
1!
1W
1r
1F
1]
1,
0X
0_
0^
1a
0`
0c
0b
1e
0d
0g
0f
1h
#1380000
0!
0W
#1390000
1!
1W
1l
0m
0n
0o
0p
0q
0r
0F
0G
0H
0I
0J
0K
1L
1i
1g
0e
1c
0a
1_
0]
1&
0'
0(
0)
0*
0+
0,
0h
1f
1d
1b
1`
1^
1X
0i
1j
1h
0f
0d
0b
0`
0^
0j
#1400000
0!
0W
#1410000
1!
1W
1r
1F
1]
1,
0X
1^
#1420000
0!
0W
#1430000
1!
1W
1q
0r
0F
1G
0_
0]
1+
0,
0^
1X
1_
1`
1^
0`
#1440000
bx10 "
0!
0[
0W
0\
1i
0_
1j
0h
1f
1d
1b
1`
0^
1a
0j
0`
0c
0b
1e
0d
0g
0f
1h
#1450000
1!
1W
0q
1r
1F
0G
1_
1]
0+
1,
1^
0X
0a
0_
1`
0^
1c
1a
1b
0`
0e
0c
1d
0b
1g
1e
1f
0d
0g
0h
0f
1h
#1460000
0!
0W
#1470000
1!
1W
0r
0F
0]
0,
1X
1_
1^
0a
1`
1c
1b
0e
1d
1g
1f
0h
#1480000
0!
0W
#1490000
1!
1W
0l
1m
1n
1o
1p
1q
1r
1F
1G
1H
1I
1J
1K
0L
0i
0g
1e
0c
1a
0_
1]
0&
1'
1(
1)
1*
1+
1,
1h
0f
0d
0b
0`
0^
0X
1i
1j
0h
1f
1d
1b
1`
1^
0j
#1500000
0!
0W
#1510000
1!
1W
0r
0F
0]
0,
1X
0^
#1520000
0!
0W
#1530000
1!
1W
0q
1r
1F
0G
1_
1]
0+
1,
1^
0X
0_
0`
0^
1`
#1540000
0!
0W
#1550000
1!
1W
0r
0F
0]
0,
1X
1_
1^
0`
#1560000
0!
0W
#1570000
1!
1W
0p
1q
1r
1F
1G
0H
0a
0_
1]
0*
1+
1,
1`
0^
0X
1a
0b
0`
1^
1b
#1580000
0!
0W
#1590000
1!
1W
0r
0F
0]
0,
1X
0^
#1600000
0!
0W
#1610000
1!
1W
0q
1r
1F
0G
1_
1]
0+
1,
1^
0X
0a
0_
1`
0^
1a
0b
0`
1b
#1620000
0!
0W
#1630000
1!
1W
0r
0F
0]
0,
1X
1_
1^
0a
1`
0b
#1640000
0!
0W
#1650000
1!
1W
0o
1p
1q
1r
1F
1G
1H
0I
1c
1a
0_
1]
0)
1*
1+
1,
1b
0`
0^
0X
0c
0d
0b
1`
1^
1d
#1660000
0!
0W
#1670000
1!
1W
0r
0F
0]
0,
1X
0^
#1680000
0!
0W
#1690000
1!
1W
0q
1r
1F
0G
1_
1]
0+
1,
1^
0X
0_
0`
0^
1`
#1700000
0!
0W
#1710000
1!
1W
0r
0F
0]
0,
1X
1_
1^
0`
#1720000
0!
0W
#1730000
1!
1W
0p
1q
1r
1F
1G
0H
0a
0_
1]
0*
1+
1,
1`
0^
0X
1c
1a
1b
0`
1^
0c
0d
0b
1d
#1740000
0!
0W
#1750000
1!
1W
0r
0F
0]
0,
1X
0^
#1760000
0!
0W
#1770000
1!
1W
0q
1r
1F
0G
1_
1]
0+
1,
1^
0X
0a
0_
1`
0^
1c
1a
1b
0`
0c
0d
0b
1d
#1780000
0!
0W
#1790000
1!
1W
0r
0F
0]
0,
1X
1_
1^
0a
1`
1c
1b
0d
#1800000
0!
0W
#1810000
1!
1W
0n
1o
1p
1q
1r
1F
1G
1H
1I
0J
0e
0c
1a
0_
1]
0(
1)
1*
1+
1,
1d
0b
0`
0^
0X
1e
0f
0d
1b
1`
1^
1f
#1820000
0!
0W
#1830000
1!
1W
0r
0F
0]
0,
1X
0^
#1840000
0!
0W
#1850000
1!
1W
0q
1r
1F
0G
1_
1]
0+
1,
1^
0X
0_
0`
0^
1`
#1860000
0!
0W
#1870000
1!
1W
0r
0F
0]
0,
1X
1_
1^
0`
#1880000
0!
0W
#1890000
1!
1W
0p
1q
1r
1F
1G
0H
0a
0_
1]
0*
1+
1,
1`
0^
0X
1a
0b
0`
1^
1b
#1900000
0!
0W
#1910000
1!
1W
0r
0F
0]
0,
1X
0^
#1920000
0!
0W
#1930000
1!
1W
0q
1r
1F
0G
1_
1]
0+
1,
1^
0X
0a
0_
1`
0^
1a
0b
0`
1b
#1940000
0!
0W
#1950000
1!
1W
0r
0F
0]
0,
1X
1_
1^
0a
1`
0b
#1960000
0!
0W
#1970000
1!
1W
0o
1p
1q
1r
1F
1G
1H
0I
1c
1a
0_
1]
0)
1*
1+
1,
1b
0`
0^
0X
0e
0c
1d
0b
1`
1^
1e
0f
0d
1f
